// Copyright © 2020 Søren Nielsen <contact@cph.dev>
//
// Licensed under the Apache License, Version 2.0 (the "License");
// you may not use this file except in compliance with the License.
// You may obtain a copy of the License at
//
//     http://www.apache.org/licenses/LICENSE-2.0
//
// Unless required by applicable law or agreed to in writing, software
// distributed under the License is distributed on an "AS IS" BASIS,
// WITHOUT WARRANTIES OR CONDITIONS OF ANY KIND, either express or implied.
// See the License for the specific language governing permissions and
// limitations under the License.

module gitlab.com/sorennielsen/bmi

go 1.14

require (
	github.com/julienschmidt/httprouter v1.3.0
	github.com/mitchellh/go-homedir v1.1.0
	github.com/spf13/cobra v1.0.0
	github.com/spf13/viper v1.7.0
)
